## Autogenerated by Scribe. DO NOT MODIFY.

name: Publishers
description: "API's for the publishers."
endpoints:
  -
    httpMethods:
      - GET
    uri: api/publishers
    metadata:
      groupName: Publishers
      groupDescription: "API's for the publishers."
      subgroup: ''
      subgroupDescription: ''
      title: 'Display a listing of publishers.'
      description: ''
      authenticated: false
      custom: []
    headers:
      Content-Type: application/json
      Accept: application/json
    urlParameters: []
    cleanUrlParameters: []
    queryParameters: []
    cleanQueryParameters: []
    bodyParameters: []
    cleanBodyParameters: []
    fileParameters: []
    responses:
      -
        status: 200
        content: |-
          {
            "current_page": 1,
            "data": [
              {
                "id": 1,
                "name": "Publisher 1",
                "city": "City 1",
                "country_code": "US",
                "created_at": "2023-07-10 09:00:00",
                "updated_at": "2023-07-10 09:00:00"
              },
              {
                "id": 2,
                "name": "Publisher 2",
                "city": "City 2",
                "country_code": "UK",
                "created_at": "2023-07-10 09:00:00",
                "updated_at": "2023-07-10 09:00:00"
              }
            ],
            "first_page_url": "http://localhost/api/publishers?page=1",
            "from": 1,
            "last_page": 5,
            "last_page_url": "http://localhost/api/publishers?page=5",
            "next_page_url": "http://localhost/api/publishers?page=2",
            "path": "http://localhost/api/publishers",
            "per_page": 10,
            "prev_page_url": null,
            "to": 10,
            "total": 50
          }
        headers: []
        description: ''
        custom: []
    responseFields: []
    auth: []
    controller: null
    method: null
    route: null
    custom: []
  -
    httpMethods:
      - POST
    uri: api/publishers
    metadata:
      groupName: Publishers
      groupDescription: "API's for the publishers."
      subgroup: ''
      subgroupDescription: ''
      title: 'Store a newly created publisher in storage.'
      description: ''
      authenticated: false
      custom: []
    headers:
      Content-Type: application/json
      Accept: application/json
    urlParameters: []
    cleanUrlParameters: []
    queryParameters: []
    cleanQueryParameters: []
    bodyParameters:
      name:
        name: name
        description: ''
        required: true
        example: velit
        type: string
        custom: []
      city:
        name: city
        description: ''
        required: true
        example: voluptatem
        type: string
        custom: []
      country_code:
        name: country_code
        description: ''
        required: true
        example: beatae
        type: string
        custom: []
    cleanBodyParameters:
      name: velit
      city: voluptatem
      country_code: beatae
    fileParameters: []
    responses:
      -
        status: 200
        content: |-
          {
            "id": 3,
            "name": "Publisher 3",
            "city": "City 3",
            "country_code": "DE",
            "created_at": "2023-07-10 09:00:00",
            "updated_at": "2023-07-10 09:00:00"
          }
        headers: []
        description: ''
        custom: []
    responseFields: []
    auth: []
    controller: null
    method: null
    route: null
    custom: []
  -
    httpMethods:
      - GET
    uri: 'api/publishers/{id}'
    metadata:
      groupName: Publishers
      groupDescription: "API's for the publishers."
      subgroup: ''
      subgroupDescription: ''
      title: 'Display the specified publisher.'
      description: ''
      authenticated: false
      custom: []
    headers:
      Content-Type: application/json
      Accept: application/json
    urlParameters:
      id:
        name: id
        description: 'The ID of the publisher.'
        required: true
        example: 1
        type: integer
        custom: []
    cleanUrlParameters:
      id: 1
    queryParameters: []
    cleanQueryParameters: []
    bodyParameters: []
    cleanBodyParameters: []
    fileParameters: []
    responses:
      -
        status: 200
        content: |-
          {
            "id": 1,
            "name": "Publisher 1",
            "city": "City 1",
            "country_code": "US",
            "created_at": "2023-07-10 09:00:00",
            "updated_at": "2023-07-10 09:00:00"
          }
        headers: []
        description: ''
        custom: []
    responseFields: []
    auth: []
    controller: null
    method: null
    route: null
    custom: []
  -
    httpMethods:
      - PUT
      - PATCH
    uri: 'api/publishers/{id}'
    metadata:
      groupName: Publishers
      groupDescription: "API's for the publishers."
      subgroup: ''
      subgroupDescription: ''
      title: 'Update the specified publisher in storage.'
      description: ''
      authenticated: false
      custom: []
    headers:
      Content-Type: application/json
      Accept: application/json
    urlParameters:
      id:
        name: id
        description: 'The ID of the publisher.'
        required: true
        example: 1
        type: integer
        custom: []
    cleanUrlParameters:
      id: 1
    queryParameters: []
    cleanQueryParameters: []
    bodyParameters:
      name:
        name: name
        description: ''
        required: true
        example: rerum
        type: string
        custom: []
      city:
        name: city
        description: ''
        required: true
        example: vel
        type: string
        custom: []
      country_code:
        name: country_code
        description: ''
        required: true
        example: vitae
        type: string
        custom: []
    cleanBodyParameters:
      name: rerum
      city: vel
      country_code: vitae
    fileParameters: []
    responses:
      -
        status: 200
        content: |-
          {
            "id": 1,
            "name": "Publisher 1",
            "city": "Updated City",
            "country_code": "US",
            "created_at": "2023-07-10 09:00:00",
            "updated_at": "2023-07-10 10:00:00"
          }
        headers: []
        description: ''
        custom: []
    responseFields: []
    auth: []
    controller: null
    method: null
    route: null
    custom: []
  -
    httpMethods:
      - DELETE
    uri: 'api/publishers/{id}'
    metadata:
      groupName: Publishers
      groupDescription: "API's for the publishers."
      subgroup: ''
      subgroupDescription: ''
      title: 'Remove the specified publisher from storage.'
      description: ''
      authenticated: false
      custom: []
    headers:
      Content-Type: application/json
      Accept: application/json
    urlParameters:
      id:
        name: id
        description: 'The ID of the publisher.'
        required: true
        example: 1
        type: integer
        custom: []
    cleanUrlParameters:
      id: 1
    queryParameters: []
    cleanQueryParameters: []
    bodyParameters: []
    cleanBodyParameters: []
    fileParameters: []
    responses:
      -
        status: 200
        content: |-
          {
            "message": "Publisher deleted successfully"
          }
        headers: []
        description: ''
        custom: []
    responseFields: []
    auth: []
    controller: null
    method: null
    route: null
    custom: []
